…
## Exercise 3: Examples

Now, I will test the function using the *steam_games* dataset for the
`data` parameter.

I will show how the function works when only one categorical
variable(**genre**) is used for the parameter `column_names`.

``` r
summary_result <- count_by_general(steam_games, "genre")
summary_result
```

    ## # A tibble: 32 × 2
    ##    genre                 count
    ##    <chr>                 <int>
    ##  1 Accounting                6
    ##  2 Action                16290
    ##  3 Adventure              6854
    ##  4 Animation & Modeling    231
    ##  5 Audio Production        122
    ##  6 Casual                 6348
    ##  7 Design & Illustration   471
    ##  8 Early Access              6
    ##  9 Education                83
    ## 10 Free to Play            577
    ## # ℹ 22 more rows

I will then show that the function works when `column_names` is a
character vector containing the names of two categorical grouping
variables (**genre**, **languages**).

``` r
summary_result <- count_by_general(steam_games, c("genre", "languages"))
summary_result
```

    ## # A tibble: 66 × 3
    ##    genre      languages          count
    ##    <chr>      <chr>              <int>
    ##  1 Accounting English                6
    ##  2 Action     Czech                  3
    ##  3 Action     Danish                 1
    ##  4 Action     English            16272
    ##  5 Action     German                 2
    ##  6 Action     Japanese               2
    ##  7 Action     Russian                2
    ##  8 Action     Simplified Chinese     1
    ##  9 Action     Turkish                1
    ## 10 Action     <NA>                   6
    ## # ℹ 56 more rows

I will then show that the function works when `date` is not NA
(**release_date**).

``` r
summary_result <- count_by_general(steam_games, "genre", date = "release_date")
```

    ## Error in count_by_general(steam_games, "genre", date = "release_date"): Date values in column release_date do not match the expected format (Month Day, Year).

``` r
summary_result
```

    ## # A tibble: 66 × 3
    ##    genre      languages          count
    ##    <chr>      <chr>              <int>
    ##  1 Accounting English                6
    ##  2 Action     Czech                  3
    ##  3 Action     Danish                 1
    ##  4 Action     English            16272
    ##  5 Action     German                 2
    ##  6 Action     Japanese               2
    ##  7 Action     Russian                2
    ##  8 Action     Simplified Chinese     1
    ##  9 Action     Turkish                1
    ## 10 Action     <NA>                   6
    ## # ℹ 56 more rows

I will show how the function still works for normal values without
comma. (**developer**)

``` r
summary_result <- count_by_general(steam_games, "developer")
summary_result
```

    ## # A tibble: 16,604 × 2
    ##    developer                  count
    ##    <chr>                      <int>
    ##  1 #workshop                      3
    ##  2 'What Day is it?' Games        1
    ##  3 (Not Applicable)               1
    ##  4 (STCG) Smoker The Car Game     1
    ##  5 +7 Software                    3
    ##  6 +Mpact Games                   1
    ##  7 .ez Games                      1
    ##  8 01 Studio                      1
    ##  9 07th Expansion                11
    ## 10 08 Games                       2
    ## # ℹ 16,594 more rows
…
